<?xml version="1.0" encoding="utf-8"?>
<!-- Generator: Adobe Illustrator 17.0.0, SVG Export Plug-In . SVG Version: 6.00 Build 0)  -->
<!DOCTYPE svg PUBLIC "-//W3C//DTD SVG 1.1//EN" "http://www.w3.org/Graphics/SVG/1.1/DTD/svg11.dtd">
<svg version="1.1"
	 id="Layer_1" xmlns:dc="http://purl.org/dc/elements/1.1/" xmlns:cc="http://creativecommons.org/ns#" xmlns:rdf="http://www.w3.org/1999/02/22-rdf-syntax-ns#" xmlns:svg="http://www.w3.org/2000/svg" xmlns:sodipodi="http://sodipodi.sourceforge.net/DTD/sodipodi-0.dtd" xmlns:inkscape="http://www.inkscape.org/namespaces/inkscape"
	 xmlns="http://www.w3.org/2000/svg" xmlns:xlink="http://www.w3.org/1999/xlink" x="0px" y="0px" width="612px" height="792px"
	 viewBox="0 0 612 792" enable-background="new 0 0 612 792" xml:space="preserve">
<path fill="#bbb" d="M297.011,68.389l-3.442,3.06L51.255,291.386l-15.682,14.153c-1.237,0.53-0.481,2.7-0.765,4.016v84.341v3.634l2.104,3.06
	c0,0,6.801,10.415,16.83,21.229c9.214,9.935,20.877,20.929,36.338,24.289l10.327,5.738l-19.699,24.862c0,0-3.858,4.686-1.912,7.841
	c1.946,3.155,8.033,1.913,8.033,1.913l32.895-7.65l0.574,35.764c0,0-0.96,7.066,2.677,8.415s8.224-4.59,8.224-4.59l28.114-34.234
	l160.267,88.166c0,0,5.17,2.939,8.224,2.486c3.054-0.452,6.503-4.59,6.503-4.59L587.329,311.85c0.064-0.063,0.128-0.127,0.191-0.191
	l0.765-0.574c5.034-4.575,5.406-12.364,0.831-17.398c-0.998-1.099-2.187-2.008-3.509-2.683l-23.141-11.475
	c-1.889-0.97-3.998-1.431-6.12-1.339l0.383-40.545c0.046-0.843-0.085-1.696-0.383-2.486l10.901-11.284c0,0,5.215-5.328,4.208-10.901
	c-1.008-5.573-7.65-8.606-7.65-8.606l-184.747-89.314c-2.516-5.667-8.142-17.555-21.229-29.452
	c-11.1-10.091-25.059-13.587-36.146-15.491s-20.081-1.721-20.081-1.721H297.011z M306,93.251c2.357,0.041,5.015-0.153,11.475,0.956
	c8.723,1.498,18.745,4.87,23.906,9.563c11.655,10.596,17.404,25.054,17.404,25.054l1.721,4.59l4.399,2.104l172.89,83.576
	L326.846,435.971l-199.474-97.92c-4.185-9.747-16.356-31.478-43.605-43.223L306,93.251z M316.519,171.281l-3.443,3.06
	l-12.431,12.049c-2.674,2.068-3.165,5.912-1.096,8.586s5.912,3.165,8.586,1.096c0.339-0.262,0.649-0.558,0.925-0.885l9.18-8.798
	l29.835,17.212l0.191,0.191h0.191l69.233,33.469l-44.37,44.37l-99.45-50.873l21.229-21.803c2.377-2.429,2.334-6.325-0.096-8.702
	c-2.429-2.377-6.325-2.334-8.702,0.096l0,0l-26.966,27.923l-5.738,5.929l7.268,3.825l110.925,56.419l3.825,2.104l3.251-3.251
	l53.55-53.55l6.12-6.12l-7.65-3.825l-76.691-36.72l-0.574-0.382l-33.277-19.125L316.519,171.281z M544.489,247.207l-0.574,42.075
	L323.786,510.367l0.574-48.386c0,0,4.59,2.232,7.459,1.721c2.869-0.51,6.311-4.399,6.311-4.399L544.489,247.207z M550.226,300.566
	c0.368,0.276,0.751,0.532,1.147,0.765l8.033,4.016L323.212,546.323L175.185,464.85l7.268-8.606
	c5.785,3.084,9.549,5.018,19.125,10.136c28.637,15.304,57.357,30.616,79.178,42.266c10.91,5.825,20.017,10.654,26.584,14.153
	c4.958,2.462,11.089,6.363,13.77,5.737c2.681-0.625,3.634-1.721,3.634-1.721l3.443-3.251v-0.191L550.226,300.566z M59.287,312.806
	c10.357,1.542,18.482,4.939,24.863,8.989v78.221c0,0-0.055,2.207,0.574,3.251c0.629,1.044,2.677,2.104,2.677,2.104
	s21.548,11.566,34.999,18.742l-6.502,8.224l-14.535-8.033l-2.104-1.147l-2.486-0.191c-4.955-0.566-16.531-8.596-25.054-17.786
	c-7.276-7.845-10.997-13.413-12.431-15.491V312.806z M96.39,332.314c7.726,9.174,9.754,17.977,9.754,17.977l1.53,5.355l4.781,2.295
	l199.665,98.111l-0.574,55.271c-6.459-3.44-14.764-7.894-25.054-13.387c-21.818-11.648-50.542-27.154-79.177-42.458
	c-8.516-4.551-11.966-6.298-17.021-8.989l9.18-11.092c0,0,2.581-2.98,2.104-5.355c-0.477-2.375-3.825-3.825-3.825-3.825
	l-48.386-27.731c0,0-2.702-2.059-4.59-1.721c-1.888,0.338-3.251,3.251-3.251,3.251l-11.284,14.152
	c-12.858-6.868-32.909-17.473-33.851-17.977V332.314z M147.836,411.682l37.485,21.42l-53.167,64.834l-0.383-26.966v-7.459
	l-7.459,1.721l-23.141,5.355L147.836,411.682z"/>
</svg>
